{
  "apiEndPoint": "https://ac9999e1.firebaseio.com/",
  "loginEndPoint":"https://identitytoolkit.googleapis.com/v1/accounts:signInWithPassword?key=AIzaSyB2S0stI0EA9UszrE7qL4kGkndCKWw8yXI",
  "refreshTokenKeyApi":"https://securetoken.googleapis.com/v1/token?key=AIzaSyB2S0stI0EA9UszrE7qL4kGkndCKWw8yXI"
}
